\relax 
\catcode`"\active
\catcode`<\active
\catcode`>\active
\@nameuse{es@quoting}
\ifx\hyper@anchor\@undefined
\global \let \oldcontentsline\contentsline
\gdef \contentsline#1#2#3#4{\oldcontentsline{#1}{#2}{#3}}
\global \let \oldnewlabel\newlabel
\gdef \newlabel#1#2{\newlabelxx{#1}#2}
\gdef \newlabelxx#1#2#3#4#5#6{\oldnewlabel{#1}{{#2}{#3}}}
\AtEndDocument{\let \contentsline\oldcontentsline
\let \newlabel\oldnewlabel}
\else
\global \let \hyper@last\relax 
\fi

\select@language{spanish}
\@writefile{toc}{\select@language{spanish}}
\@writefile{lof}{\select@language{spanish}}
\@writefile{lot}{\select@language{spanish}}
\@writefile{toc}{\contentsline {section}{\numberline {1}Introducci\IeC {\'o}n}{2}{section.1}}
\@writefile{toc}{\contentsline {section}{\numberline {2}Requisitos}{2}{section.2}}
\@writefile{toc}{\contentsline {section}{\numberline {3}Configuraci\IeC {\'o}n}{2}{section.3}}
\@writefile{toc}{\contentsline {subsection}{\numberline {3.1}Instrumentos \IeC {\'o}pticos}{2}{subsection.3.1}}
\@writefile{toc}{\contentsline {subsubsection}{\numberline {3.1.1}Agregar}{2}{subsubsection.3.1.1}}
\@writefile{toc}{\contentsline {subsubsection}{\numberline {3.1.2}Eliminar}{2}{subsubsection.3.1.2}}
\@writefile{toc}{\contentsline {subsection}{\numberline {3.2}Sistema de unidades}{2}{subsection.3.2}}
\@writefile{toc}{\contentsline {subsection}{\numberline {3.3}Opciones de conteo}{3}{subsection.3.3}}
\@writefile{toc}{\contentsline {subsection}{\numberline {3.4}Dispositivos de v\IeC {\'\i }deo}{3}{subsection.3.4}}
\@writefile{toc}{\contentsline {section}{\numberline {4}Im\IeC {\'a}genes}{3}{section.4}}
\@writefile{toc}{\contentsline {subsection}{\numberline {4.1}Capturar im\IeC {\'a}genes}{3}{subsection.4.1}}
\@writefile{toc}{\contentsline {section}{\numberline {5}Medici\IeC {\'o}n}{3}{section.5}}
\@writefile{toc}{\contentsline {subsection}{\numberline {5.1}Selecci\IeC {\'o}n de instrumento \IeC {\'o}ptico}{4}{subsection.5.1}}
\@writefile{toc}{\contentsline {subsection}{\numberline {5.2}Calibraci\IeC {\'o}n}{4}{subsection.5.2}}
\@writefile{toc}{\contentsline {subsection}{\numberline {5.3}Longitud}{4}{subsection.5.3}}
\@writefile{toc}{\contentsline {subsection}{\numberline {5.4}Per\IeC {\'\i }metro}{4}{subsection.5.4}}
\@writefile{toc}{\contentsline {subsection}{\numberline {5.5}\IeC {\'A}rea}{5}{subsection.5.5}}
\@writefile{toc}{\contentsline {subsection}{\numberline {5.6}\IeC {\'A}ngulo}{5}{subsection.5.6}}
\@writefile{toc}{\contentsline {subsection}{\numberline {5.7}Guardar resultados}{5}{subsection.5.7}}
\@writefile{toc}{\contentsline {section}{\numberline {6}Conteo de part\IeC {\'\i }culas}{5}{section.6}}
\citation{SM06}
\citation{MCC05b}
\bibstyle{plain}
\bibdata{cs.bib}
\bibcite{MCC05b}{1}
\@writefile{toc}{\contentsline {subsection}{\numberline {6.1}Requisitos}{6}{subsection.6.1}}
\@writefile{toc}{\contentsline {subsection}{\numberline {6.2}Conteo}{6}{subsection.6.2}}
\@writefile{toc}{\contentsline {subsection}{\numberline {6.3}Confiabilidad}{6}{subsection.6.3}}
\@writefile{toc}{\contentsline {section}{\numberline {7}Captura peri\IeC {\'o}dica de im\IeC {\'a}genes}{6}{section.7}}
\@writefile{toc}{\contentsline {section}{\numberline {8}Soporte}{6}{section.8}}
\newlabel{soporte}{{8}{6}{Soporte\relax }{section.8}{}}
\bibcite{SM06}{2}
